[gd_scene load_steps=7 format=2]

[ext_resource path="res://Images/player.jpg" type="Texture" id=1]
[ext_resource path="res://Player.gd" type="Script" id=2]
[ext_resource path="res://Block.tscn" type="PackedScene" id=3]
[ext_resource path="res://Main.gd" type="Script" id=4]
[ext_resource path="res://Reward.tscn" type="PackedScene" id=5]

[sub_resource type="RectangleShape2D" id=1]
extents = Vector2( 45, 45 )

[node name="Main" type="Node2D"]
script = ExtResource( 4 )
block_scene = ExtResource( 3 )
reward_scene = ExtResource( 5 )

[node name="Player" type="KinematicBody2D" parent="."]
position = Vector2( 180, 595 )
z_index = 1
script = ExtResource( 2 )

[node name="Sprite" type="Sprite" parent="Player"]
scale = Vector2( 0.125, 0.125 )
texture = ExtResource( 1 )

[node name="CollisionShape2D" type="CollisionShape2D" parent="Player"]
shape = SubResource( 1 )

[node name="StartTimer" type="Timer" parent="."]
wait_time = 2.0
one_shot = true

[node name="SpawnPosition" type="Position2D" parent="."]
position = Vector2( 180, -90 )

[connection signal="timeout" from="StartTimer" to="." method="_on_StartTimer_timeout"]
